kode,note,grup
1116,Tanaman Pangan - Palawija - Umbi-umbian,Tanaman Pangan
1141,Perkebunan Karet,Perkebunan
1144,Perkebunan Tembakau,Perkebunan
3420,Industri - Perabot Kayu,Industri
3530,Industri - Bahan Kertas (Pulp),Industri
3680,Industri - Minyak Atsiri,Industri
4000,Listrik; Gas; dan Air,Listrik
5000,Konstruksi,Konstruksi
5900,Konstruksi - Proyek yg dibiayai dgn pinjaman dari/untuk pembayaran di luar negeri,Konstruksi
6118,Ekspor Bahan Baku Bijih Logam selain Timah,Ekspor Bahan Baku
6132,Ekspor Barang Setengah Jadi Kopi Biji,Ekspor Barang Setengah Jadi 
6142,Ekspor Barang Setengah Jadi Hasil Tambang,Ekspor Barang Setengah Jadi 
6164,Ekspor Barang Jadi Hasil Tanaman Pangan & Perkebunan Lainnya,Ekspor Barang Jadi 
6170,Ekspor Barang Jadi Sandang Selain Tekstil,Ekspor Barang Jadi 
6226,Impor Bukan dlm.rangka Bantuan Luar Negeri - Gula,Impor Bukan dlm.rangka Bantuan Luar Negeri
6311,Pembelian & Pengumpulan Brg. Dagangan Dlm.Neg. : Beras,Pembelian & Pengumpulan Brg. Dagangan Dlm.Neg.
6490,Distribusi lainnya,Distribusi
7000,Pengangkutan; Pergudangan; Komunikasi,Pengangkutan
7130,Pengangkutan Umum Laut,Pengangkutan
7140,Pengangkutan Umum Udara,Pengangkutan
7200,Biro Perjalanan,Biro Perjalanan 
8111,Jasa-jasa Dunia Usaha - Perumahan Sederhana PERUMNAS,Jasa-jasa Dunia Usaha 
1115,Tanaman Pangan - Palawija - Kacang-kacangan,Tanaman Pangan
1142,Perkebunan Kelapa,Perkebunan
1143,Perkebunan Kopi,Perkebunan
1152,Perkebunan Pala,Perkebunan
1153,Perkebunan Kakao/ Coklat,Perkebunan
1159,Perkebunan lainnya,Perkebunan
1161,Perikanan Laut - Udang,Perikanan 
1314,Sarana Pertanian - Pencetakan Sawah,Sarana Pertanian
2210,Pertambangan Biji Logam - Timah,Pertambangan
2300,Pertambangan Batubara,Pertambangan
3000,Perindustrian,Perindustrian 
3180,Industri - Rokok,Industri
3310,Industri - Tekstil,Industri
3939,Pembuatan Komponen Lainnya,Pembuatan Komponen 
6112,Ekspor Bahan Baku Kayu,Ekspor Bahan Baku
6141,Ekspor Barang Setengah Jadi Bahan Makanan Lainnya,Ekspor Barang Setengah Jadi
6161,Ekspor Barang Jadi Kayu Lapis & Sejenisnya,Ekspor Barang Jadi 
6180,Ekspor Jasa-jasa - Konstruksi,Ekspor Jasa-jasa
6213,Impor dlm.rangka Bantuan Luar Negeri - Kapas,Impor dlm.rangka Bantuan Luar Negeri
6322,Pembelian & Pengumpulan Brg. Dagangan Dlm.Neg. : Tembakau,Pembelian & Pengumpulan Brg. Dagangan Dlm.Neg.
6420,Distribusi Bahan Bakar Minyak,Distribusi
7120,Pengangkutan Umum Sungai,Pengangkutan
1111,Tanaman Pangan - Padi,Tanaman Pangan
1167,Perikanan Payau - Udang,Perikanan
1312,Sarana Pertanian - Alat Penggarapan Tanah,Sarana Pertanian
2290,Pertambangan Biji Logam - Lainnya,Pertambangan
3120,Industri - Gula,Industri
3200,Industri - Makanan Ternak dan Ikan,Industri
5400,Konstruksi - Pencetakan Sawah,Konstruksi
6113,Ekspor Bahan Baku Rotan,Ekspor Bahan Baku
6136,Ekspor Barang Setengah Jadi Minyak Kelapa Sawit Mentah,Ekspor Barang Setengah Jadi 
6212,Impor dlm.rangka Bantuan Luar Negeri - Beras,Impor dlm.rangka Bantuan Luar Negeri
6222,Impor Bukan dlm.rangka Bantuan Luar Negeri - Besi Beton,Impor Bukan dlm.rangka Bantuan Luar Negeri
6228,Impor Bukan dlm.rangka Bantuan Luar Negeri - Jagung,Impor Bukan dlm.rangka Bantuan Luar Negeri
6316,Pembelian & Pengumpulan Brg. Dagangan Dlm.Neg. : Karet,Pembelian & Pengumpulan Brg. Dagangan Dlm.Neg.
6324,Pembelian & Pengumpulan Brg. Dagangan Dlm.Neg. : Teh,Pembelian & Pengumpulan Brg. Dagangan Dlm.Neg.
6413,Distribusi Kapas Kasar,Distribusi
6414,Distribusi Besi Beton,Distribusi
6417,Distribusi Gula,Distribusi
6418,Distribusi Tepung Terigu,Distribusi
6620,Hotel,Hotel
7110,Pengangkutan Umum Darat,Pengangkutan
7300,Pergudangan,Pergudangan
7400,Komunikasi,Komunikasi
0000,Lain-lain,Lain-lain 
1150,Perkebunan Cengkeh,Perkebunan
3110,Industri - Terigu,Industri
3670,Industri - Hasil Karet Lainnya,Industri
3790,Industri Pengolahan Hasil Tambang Bukan Logam; selain Hasil Minyak Bumi & Batu Bara - Lainnya,Industri Pengolahan Hasil Tambang Bukan Logam
3911,Perakitan Komponen Luar Negeri - Maritim,Perakitan Komponen Dalam Negeri 
3922,Perakitan Komponen Dalam Negeri - Otomotif,Perakitan Komponen Dalam Negeri
3990,Industri - Lainnya,Industri
4190,Listrik Lainnya,Listrik
4200,Gas,Gas
5120,Konstruksi - Perumahan Sederhana PERUMNAS,Konstruksi
5190,Konstruksi - Perumahan Sederhana lainnya,Konstruksi
5200,Konstruksi - Pasar Inpres,Konstruksi
6138,Ekspor Barang Setengah Jadi Bungkil Kopra,Ekspor Barang Setengah Jadi 
6168,Ekspor Barang Jadi Kerajinan Selain Kayu dan Rotan,Ekspor Barang Jadi
6411,Distribusi Semen,Distribusi
6412,Distribusi Pupuk/Obat Hama,Distribusi
6415,Distribusi Kertas Koran,Distribusi
6416,Distribusi Beras,Distribusi
6419,Distribusi Garam,Distribusi
6500,Perdagangan Eceran,Perdagangan Eceran 
6610,Restoran,Restoran
1147,Perkebunan Teh,Perkebunan
1172,Peternakan Sapi,Peternakan
1311,Sarana Pertanian - Pompanisasi,Sarana Pertanian
3130,Penggilingan Padi (huller),Penggilingan Padi
3142,Industri - Minyak Biji Kelapa Sawit,Industri
3190,Industri - Makanan Lainnya,Industri
3660,Industri - Crumb Rubber,Industri
6116,Ekspor Bahan Baku Hewan Hidup & Hasilnya,Ekspor Bahan Baku
6224,Impor Bukan dlm.rangka Bantuan Luar Negeri - Cengkeh,Impor Bukan dlm.rangka Bantuan Luar Negeri
6321,Pembelian & Pengumpulan Brg. Dagangan Dlm.Neg. : Lada,Pembelian & Pengumpulan Brg. Dagangan Dlm.Neg.
6390,Pembelian & Pengumpulan Brg. Dagangan Dlm.Neg. : Lainnya,Pembelian & Pengumpulan Brg. Dagangan Dlm.Neg. 
8000,Jasa-jasa Dunia Usaha,Jasa-jasa Dunia Usaha 
9970,Lain-lain - Alat Rumah Tangga,Lain-lain 
9990,Lain-lain; lainnya,Lain-lain
1000,Pertanian; Perburuan; Sarana Pertanian; Pertanian; Perburuan,Sarana Pertanian
1313,Sarana Pertanian - Gudang/Lantai Jemuran,Sarana Pertanian
3160,Industri - Minuman,Industri
3630,Industri - Plastik,Industri
3650,Remilling dan Rumah Asap,Remilling dan Rumah Asap
3931,Pembuatan Komponen - Maritim,Pembuatan Komponen
5110,Konstruksi - Perumahan Sederhana BTN,Konstruksi
6117,Ekspor Bahan Baku Bijih Timah,Ekspor Bahan Baku
6131,Ekspor Barang Setengah Jadi Kayu Gergajian,Ekspor Barang Setengah Jadi
6135,Ekspor Barang Setengah Jadi Lada,Ekspor Barang Setengah Jadi
6139,Ekspor Barang Setengah Jadi Hasil Tnm.Pangan & Perkebunan Lainnya,Ekspor Barang Setengah Jadi
6140,Ekspor Barang Setengah Jadi Hewan yg Sudah Diolah,Ekspor Barang Setengah Jadi 
6162,Ekspor Barang Jadi Teh,Ekspor Barang Jadi
6163,Ekspor Barang Jadi Kopi Bubuk,Ekspor Barang Jadi 
6166,Ekspor Barang Jadi Hasil Hewan Selain Udang,Ekspor Barang Jadi 
6167,Ekspor Barang Jadi Kerajinan dari Kayu dan Rotan,Ekspor Barang Jadi 
6169,Ekspor Barang Jadi Tekstil,Ekspor Barang Jadi
6219,Impor dlm.rangka Bantuan Luar Negeri - Lainnya,Impor dlm.rangka Bantuan Luar Negeri
6221,Impor Bukan dlm.rangka Bantuan Luar Negeri - Pupuk dan Obat Hama,Impor Bukan dlm.rangka Bantuan Luar Negeri
6232,Impor Bukan dlm.rangka Bantuan Luar Negeri - Suku Cadang Industri,Impor Bukan dlm.rangka Bantuan Luar Negeri
6320,Pembelian & Pengumpulan Brg. Dagangan Dlm.Neg. : Cengkeh,Pembelian & Pengumpulan Brg. Dagangan Dlm.Neg.
6325,Pembelian & Pengumpulan Brg. Dagangan Dlm.Neg. : Hewan hidup & Hasilnya,Pembelian & Pengumpulan Brg. Dagangan Dlm.Neg.
1130,Tanaman Pangan - Hortikultura,Tanaman Pangan
1145,Perkebunan Kelapa Sawit,Perkebunan
1146,Perkebunan Lada,Perkebunan
1149,Perkebunan Kapas,Perkebunan
2230,Pertambangan Biji Logam - Bauksit,Pertambangan
3330,Industri - Kulit,Industri
3690,Industri - Bahan Kimia/Hasil Minyak Bumi; Batu Bara Lainnya,Industri
3913,Perakitan Komponen Luar Negeri - Elektronika,Industri
3923,Perakitan Komponen Dalam Negeri - Elektronika,Perakitan Komponen Dalam Negeri
3934,Pembuatan Komponen - Alat pertanian,Pembuatan Komponen
6165,Ekspor Barang Jadi Udang,Ekspor Barang Jadi 
6179,Ekspor Barang Jadi lainnya,Ekspor Barang Jadi 
6211,Impor dlm.rangka Bantuan Luar Negeri - Biji Gandum,Impor dlm.rangka Bantuan Luar Negeri
6223,Impor Bukan dlm.rangka Bantuan Luar Negeri - Kertas Koran,Impor Bukan dlm.rangka Bantuan Luar Negeri
6227,Impor Bukan dlm.rangka Bantuan Luar Negeri - Biji Gandum,Impor Bukan dlm.rangka Bantuan Luar Negeri
6229,Impor Bukan dlm.rangka Bantuan Luar Negeri - Kacang Kedele,Impor Bukan dlm.rangka Bantuan Luar Negeri 
6230,Impor Bukan dlm.rangka Bantuan Luar Negeri - Farmasi,Impor Bukan dlm.rangka Bantuan Luar Negeri
6239,Impor Bukan dlm.rangka Bantuan Luar Negeri - Lainnya,Impor Bukan dlm.rangka Bantuan Luar Negeri
6313,Pembelian & Pengumpulan Brg. Dagangan Dlm.Neg. : Garam,Pembelian & Pengumpulan Brg. Dagangan Dlm.Neg.
6314,Pembelian & Pengumpulan Brg. Dagangan Dlm.Neg. : Stok Gula,Pembelian & Pengumpulan Brg. Dagangan Dlm.Neg. 
6318,Pembelian & Pengumpulan Brg. Dagangan Dlm.Neg. : Kapas,Pembelian & Pengumpulan Brg. Dagangan Dlm.Neg.
6319,Pembelian & Pengumpulan Brg. Dagangan Dlm.Neg. : Kopra,Pembelian & Pengumpulan Brg. Dagangan Dlm.Neg.
1151,Perkebunan Panili,Perkebunan
1171,Peternakan Unggas,Peternakan
2000,Pertambangan,Pertambangan
3320,Industri - Sandang,Industri
3620,Industri - Farmasi,Industri
3710,Industri Pengolahan Hasil Tambang Bukan Logam; selain Hasil Minyak Bumi & Batu Bara - Semen,Industri Pengolahan Hasil Tambang Bukan Logam
5500,Konstruksi - Jalan Raya dan Jembatan,Konstruksi
5810,Konstruksi - Listrik Pedesaan,Konstruksi
5990,Konstruksi - Lainnya,Konstruksi
6225,Impor Bukan dlm.rangka Bantuan Luar Negeri - Beras,Impor Bukan dlm.rangka Bantuan Luar Negeri
6315,Pembelian & Pengumpulan Brg. Dagangan Dlm.Neg. : Kayu,Pembelian & Pengumpulan Brg. Dagangan Dlm.Neg. 
6317,Pembelian & Pengumpulan Brg. Dagangan Dlm.Neg. : Kelapa Sawit,Pembelian & Pengumpulan Brg. Dagangan Dlm.Neg.
6323,Pembelian & Pengumpulan Brg. Dagangan Dlm.Neg. : Kopi,Pembelian & Pengumpulan Brg. Dagangan Dlm.Neg.
8120,Jasa-jasa Dunia Usaha - Real Estate - Pasar Inpres,Jasa-jasa Dunia Usaha 
9100,Jasa-jasa sosial/masyarakat - Hiburan dan Kebudayaan,Jasa-jasa sosial/masyarakat
9210,Jasa-jasa sosial/masyarakat - Kesehatan - Profesi,Jasa-jasa sosial/masyarakat
9220,Jasa-jasa sosial/masyarakat - Kesehatan - Tempat Perawatan/Pengobatan,Jasa-jasa sosial/masyarakat 
9310,Jasa-jasa sosial/masyarakat - Pendidikan - Perguruan Tinggi,Jasa-jasa sosial/masyarakat
9390,Jasa-jasa sosial/masyarakat - Pendidikan Lainnya,Jasa-jasa sosial/masyarakat 
9900,Jasa-jasa sosial/masyarakat -Lainnya,Jasa-jasa sosial/masyarakat
9950,Lain-lain - Perumahan,Lain-lain
9960,Lain-lain - Kendaraan,Lain-lain 
1117,Tanaman Pangan - Palawija -Jagung,Tanaman Pangan
1119,Tanaman Pangan - Palawija -lainnya,Tanaman Pangan
1148,Perkebunan Tebu,Perkebunan
1166,Perikanan Darat - Lainnya,Perikanan 
1169,Perikanan Payau - Lainnya,Perikanan
1179,Peternakan lainnya,Peternakan
1180,Kehutanan dan Pemotongan Kayu (logging),Kehutanan 
1360,Sarana Perikanan,Sarana Perikanan
1370,Sarana Peternakan,Sarana Peternakan
1380,Sarana Kehutanan,Sarana Kehutanan
2100,Pertambangan Minyak dan Gas Bumi,Pertambangan
2240,Pertambangan Biji Logam - Tembaga,Pertambangan
3141,Industri - Minyak Kelapa Sawit Mentah,Industri
3520,Industri - Percetakan dan Penerbitan,Industri
3914,Perakitan Komponen Luar Negeri - Alat pertanian,Pembuatan Komponen 
3919,Perakitan Komponen Luar Negeri Lainnya,Pembuatan Komponen 
3933,Pembuatan Komponen - Elektronika,Pembuatan Komponen 
4110,Listrik Pedesaan,Listrik
4300,Air,Air
5700,Konstruksi - Irigasi,Konstruksi
6111,Ekspor Bahan Baku Biji Kelapa Sawit,Ekspor Bahan Baku
6114,Ekspor Bahan Baku Hutan selain kayu dan rotan,Ekspor Bahan Baku
1164,Perikanan Darat - Udang,Perikanan
1200,Perburuan,Perburuan
1390,Sarana lainnya,Sarana lainnya
2900,Pertambangan Barang Tambang Lainnya,Pertambangan
3149,Industri - Minyak Tumbuhan Lainnya,Industri
3410,Industri - Bahan Kayu,Industri
3510,Industri - Kertas dan Hasil-hasil Kertas,Industri
3610,Industri - Pupuk/Obat Hama,Industri
3640,Industri - Hasil Kimia Lainnya,Industri
3720,Industri Pengolahan Hasil Tambang Bukan Logam; selain Hasil Minyak Bumi & Batu Bara - Batu Bata/Genteng,Industri Pengolahan Hasil Tambang Bukan Logam
3890,Industri Logam Dasar - Lainnya,Industri Logam Dasar
3912,Perakitan Komponen Luar Negeri - Otomotif,Perakitan Komponen Dalam Negeri 
3921,Perakitan Komponen Dalam Negeri - Maritim,Perakitan Komponen Dalam Negeri
3924,Perakitan Komponen Dalam Negeri - Alat pertanian,Perakitan Komponen Dalam Negeri
3929,Perakitan Komponen Dalam Negeri Lainnya,Perakitan Komponen Dalam Negeri
3932,Pembuatan Komponen - Otomotif,Pembuatan Komponen
5300,Konstruksi - Penyiapan Tanah Pemukiman Transmigrasi,Konstruksi
5600,Konstruksi - Pelabuhan,Konstruksi
5890,Konstruksi - Listrik lainnya,Konstruksi
6000,Perdagangan; Restoran; dan Hotel; Perdagangan,Restoran dan Hotel 
6129,Ekspor Bahan Baku lainnya,Ekspor Bahan Baku
6134,Ekspor Barang Setengah Jadi Karet,Ekspor Barang Setengah Jadi 
1163,Perikanan Laut - Lainnya,Perikanan 
2220,Pertambangan Biji Logam - Nikel,Pertambangan
3150,Industri - Garam,Industri
3170,Industri - Tembakau,Industri
3490,Industri - Kayu Lainnya,Industri
3730,Industri Pengolahan Hasil Tambang Bukan Logam; selain Hasil Minyak Bumi & Batu Bara - Keramik,Industri Pengolahan Hasil Tambang Bukan Logam
3810,Industri Logam Dasar - Besi Baja,Industri Logam Dasar
6115,Ekspor Bahan Baku Hasil Tanaman Pangan & Perkebunan,Ekspor Bahan Baku
6119,Ekspor Bahan Baku Batubara,Ekspor Bahan Baku
6133,Ekspor Barang Setengah Jadi Tembakau,Ekspor Barang Setengah Jadi 
6137,Ekspor Barang Setengah Jadi Biji Kelapa Sawit,Ekspor Barang Setengah Jadi 
6159,Ekspor Barang Setengah Jadi lainnya,Ekspor Barang Setengah Jadi 
6190,Ekspor Jasa-jasa - Lainnya,Ekspor Jasa-jasa
6214,Impor dlm.rangka Bantuan Luar Negeri - Benang Tenun,Impor dlm.rangka Bantuan Luar Negeri
6231,Impor Bukan dlm.rangka Bantuan Luar Negeri - Suku Cadang Kend.Bermotor,Impor Bukan dlm.rangka Bantuan Luar Negeri
6312,Pembelian & Pengumpulan Brg. Dagangan Dlm.Neg. : Jagung,Pembelian & Pengumpulan Brg. Dagangan Dlm.Neg.
8119,Jasa-jasa Dunia Usaha - Perumahan Sederhana selain PERUMNAS,Jasa-jasa Dunia Usaha
8190,Jasa-jasa Dunia Usaha - Real Estate Lainnya,Jasa-jasa Dunia Usaha
8200,Jasa-jasa Dunia Usaha - Profesi selain Dokter,Jasa-jasa Dunia Usaha 
8300,Jasa-jasa Dunia Usaha - Leasing,Jasa-jasa Dunia Usaha
8900,Jasa-jasa Dunia Usaha - Lainnya,Jasa-jasa Dunia Usaha 
9000,Jasa-jasa sosial/masyarakat,Jasa-jasa sosial/masyarakat 
